{"version":1,"resource":"file:///home/monteiro/codes/varejo_rapido/src/components/custom/sales-table.tsx","entries":[{"id":"LRUW.tsx","source":"Chat Edit: 'A paginação tá assim agora:\n# 📄 Documentação da API - Vendas\n\n## Endpoints de Vendas\n\n### 1. GET `/vendas` - Lista Simples\n\n**Descrição:** Retorna todas as vendas em uma lista simples. Ideal para poucos dados e desenvolvimento inicial.\n\n**Resposta:**\n```json\n[\n  {\n    \"id\": 1,\n    \"dataVenda\": \"2025-10-02\",\n    \"quantidade\": 2,\n    \"valorUnitario\": 25.50,\n    \"valorTotalVenda\": 51.00,\n    \"produto\": {\n      \"id\": \"1001\",\n      \"nome\": \"Produto Exemplo\",\n      \"valorUnitario\": 25.50\n    },\n    \"cliente\": {\n      \"id\": \"2001\",\n      \"nome\": \"João Silva\"\n    }\n  }\n]\n```\n\n### 2. GET `/vendas/paginado` - Com Paginação\n\n**Descrição:** Endpoint com paginação usando Spring Data. Use quando houver muitos dados (>100 registros).\n\n**Parâmetros de Query:**\n- `page` (opcional): Número da página (começa em 0) - padrão: 0\n- `size` (opcional): Tamanho da página - padrão: 20\n- `sort` (opcional): Campo e direção da ordenação - padrão: dataVenda\n\n**Exemplos de Uso:**\n```\nGET /vendas/paginado                    # Primeira página, 20 itens\nGET /vendas/paginado?page=1&size=10     # Segunda página, 10 itens\nGET /vendas/paginado?sort=id,desc       # Ordenado por ID decrescente\nGET /vendas/paginado?sort=valorTotalVenda,asc # Ordenado por valor crescente\n```\n\n**Resposta (Spring Page):**\n```json\n{\n  \"content\": [\n    {\n      \"id\": 1,\n      \"dataVenda\": \"2025-10-02\",\n      \"quantidade\": 2,\n      \"valorUnitario\": 25.50,\n      \"valorTotalVenda\": 51.00,\n      \"produto\": {\n        \"id\": \"1001\",\n        \"nome\": \"Produto Exemplo\",\n        \"valorUnitario\": 25.50\n      },\n      \"cliente\": {\n        \"id\": \"2001\",\n        \"nome\": \"João Silva\"\n      }\n    }\n  ],\n  \"pageable\": {\n    \"pageNumber\": 0,\n    \"pageSize\": 20,\n    \"sort\": {\n      \"sorted\": true,\n      \"empty\": false\n    }\n  },\n  \"totalElements\": 100,\n  \"totalPages\": 5,\n  \"last\": false,\n  \"first\": true,\n  \"numberOfElements\": 20\n}\n```\n\n### 3. POST `/vendas` - Processar Vendas em Lote\n\n**Descrição:** Processa dados vindos do frontend (arquivo .dat parseado).\n\n**Body:** Array de objetos `ItemRequestBody`\n\n**Resposta:** Objeto `VendaResponse` com estatísticas do processamento.\n\n## 📋 Exemplos Práticos\n\n### Frontend JavaScript\n\n**Lista Simples (recomendado para início):**\n```javascript\n// Buscar todas as vendas\nconst response = await fetch('/vendas');\nconst vendas = await response.json();\n\nconsole.log(`Total de vendas: ${vendas.length}`);\nvendas.forEach(venda => {\n    console.log(`Venda ${venda.id}: R$ ${venda.valorTotalVenda}`);\n});\n```\n\n**Com Paginação (quando necessário):**\n```javascript\n// Buscar primeira página\nconst response = await fetch('/vendas/paginado?page=0&size=10');\nconst data = await response.json();\n\nconsole.log(`Página ${data.number + 1} de ${data.totalPages}`);\nconsole.log(`Total de vendas: ${data.totalElements}`);\n\n// Buscar próxima página se existir\nif (!data.last) {\n    const nextPage = await fetch(`/vendas/paginado?page=${data.number + 1}&size=10`);\n}\n```\n\n### CURL\n\n```bash\n# Lista simples (para desenvolvimento)\ncurl \"http://localhost:8080/vendas\"\n\n# Com paginação (para produção com muitos dados)\ncurl \"http://localhost:8080/vendas/paginado?page=0&size=5\"\ncurl \"http://localhost:8080/vendas/paginado?sort=valorTotalVenda,desc\"\n```\n\n## 🎯 Quando Usar Cada Endpoint\n\n### GET `/vendas` (Lista Simples)\n✅ **Use quando:**\n- Poucos dados (< 100 registros)\n- Desenvolvimento/testes\n- Frontend precisa de todos os dados\n- Simplicidade é prioridade\n\n### GET `/vendas/paginado` (Com Paginação)\n✅ **Use quando:**\n- Muitos dados (> 100 registros)\n- Performance é crítica\n- Frontend tem navegação por páginas\n- Produção com grandes volumes\n\n## 🚀 Vantagens da Implementação\n\n✅ **Simplicidade primeiro**: Lista simples para começar\n✅ **Escalabilidade**: Paginação quando necessário\n✅ **Padrão Spring**: Usa `Page<T>` nativo sem reinventar a roda\n✅ **Performance otimizada**: Abordagem pragmática baseada no volume de dados\n✅ **Fácil migração**: Simples trocar de endpoint quando crescer'","timestamp":1759462711273},{"id":"flme.tsx","source":"Chat Edit: 'guia de paginação nova:\n# 📄 Documentação da API - Vendas\n\n## Endpoints de Vendas\n\n### 1. GET `/vendas` - Lista Simples\n\n**Descrição:** Retorna todas as vendas em uma lista simples. Ideal para poucos dados e desenvolvimento inicial.\n\n**Resposta:**\n```json\n[\n  {\n    \"id\": 1,\n    \"dataVenda\": \"2025-10-02\",\n    \"quantidade\": 2,\n    \"valorUnitario\": 25.50,\n    \"valorTotalVenda\": 51.00,\n    \"produto\": {\n      \"id\": \"1001\",\n      \"nome\": \"Produto Exemplo\",\n      \"valorUnitario\": 25.50\n    },\n    \"cliente\": {\n      \"id\": \"2001\",\n      \"nome\": \"João Silva\"\n    }\n  }\n]\n```\n\n### 2. GET `/vendas/paginado` - Com Paginação\n\n**Descrição:** Endpoint com paginação usando Spring Data. Use quando houver muitos dados (>100 registros).\n\n**Parâmetros de Query:**\n- `page` (opcional): Número da página (começa em 0) - padrão: 0\n- `size` (opcional): Tamanho da página - padrão: 20\n- `sortBy` (opcional): Campo para ordenação - padrão: id\n- `sortDir` (opcional): Direção da ordenação (asc/desc) - padrão: asc\n\n**Campos disponíveis para ordenação:**\n- `id` - ID da venda\n- `dataVenda` - Data da venda\n- `quantidade` - Quantidade vendida\n- `valorUnitario` - Valor unitário\n- `valorTotalVenda` - Valor total da venda\n\n**Exemplos de Uso:**\n```\nGET /vendas/paginado                                    # Primeira página, 20 itens, ordenado por ID\nGET /vendas/paginado?page=1&size=10                     # Segunda página, 10 itens\nGET /vendas/paginado?sortBy=id&sortDir=desc             # Ordenado por ID decrescente\nGET /vendas/paginado?sortBy=dataVenda&sortDir=asc       # Ordenado por data crescente\nGET /vendas/paginado?sortBy=valorTotalVenda&sortDir=desc # Ordenado por valor decrescente\nGET /vendas/paginado?page=0&size=5&sortBy=dataVenda     # Personalizado completo\n```\n\n**Resposta (Spring Page):**\n```json\n{\n  \"content\": [\n    {\n      \"id\": 1,\n      \"dataVenda\": \"2025-10-02\",\n      \"quantidade\": 2,\n      \"valorUnitario\": 25.50,\n      \"valorTotalVenda\": 51.00,\n      \"produto\": {\n        \"id\": \"1001\",\n        \"nome\": \"Produto Exemplo\",\n        \"valorUnitario\": 25.50\n      },\n      \"cliente\": {\n        \"id\": \"2001\",\n        \"nome\": \"João Silva\"\n      }\n    }\n  ],\n  \"pageable\": {\n    \"pageNumber\": 0,\n    \"pageSize\": 20,\n    \"sort\": {\n      \"sorted\": true,\n      \"empty\": false\n    }\n  },\n  \"totalElements\": 100,\n  \"totalPages\": 5,\n  \"last\": false,\n  \"first\": true,\n  \"numberOfElements\": 20\n}\n```\n\n### 3. POST `/vendas` - Processar Vendas em Lote\n\n**Descrição:** Processa dados vindos do frontend (arquivo .dat parseado).\n\n**Body:** Array de objetos `ItemRequestBody`\n\n**Resposta:** Objeto `VendaResponse` com estatísticas do processamento.\n\n## 📋 Exemplos Práticos\n\n### Frontend JavaScript\n\n**Lista Simples (recomendado para início):**\n```javascript\n// Buscar todas as vendas\nconst response = await fetch('/vendas');\nconst vendas = await response.json();\n\nconsole.log(`Total de vendas: ${vendas.length}`);\nvendas.forEach(venda => {\n    console.log(`Venda ${venda.id}: R$ ${venda.valorTotalVenda}`);\n});\n```\n\n**Com Paginação (quando necessário):**\n```javascript\n// Buscar primeira página\nconst response = await fetch('/vendas/paginado?page=0&size=10');\nconst data = await response.json();\n\nconsole.log(`Página ${data.number + 1} de ${data.totalPages}`);\nconsole.log(`Total de vendas: ${data.totalElements}`);\n\n// Buscar próxima página se existir\nif (!data.last) {\n    const nextPage = await fetch(`/vendas/paginado?page=${data.number + 1}&size=10`);\n}\n```\n\n### CURL\n\n```bash\n# Lista simples (para desenvolvimento)\ncurl \"http://localhost:8080/vendas\"\n\n# Com paginação (para produção com muitos dados)\ncurl \"http://localhost:8080/vendas/paginado?page=0&size=5\"\ncurl \"http://localhost:8080/vendas/paginado?sort=valorTotalVenda,desc\"\n```\n\n## 🎯 Quando Usar Cada Endpoint\n\n### GET `/vendas` (Lista Simples)\n✅ **Use quando:**\n- Poucos dados (< 100 registros)\n- Desenvolvimento/testes\n- Frontend precisa de todos os dados\n- Simplicidade é prioridade\n\n### GET `/vendas/paginado` (Com Paginação)\n✅ **Use quando:**\n- Muitos dados (> 100 registros)\n- Performance é crítica\n- Frontend tem navegação por páginas\n- Produção com grandes volumes\n\n## 🚀 Vantagens da Implementação\n\n✅ **Simplicidade primeiro**: Lista simples para começar\n✅ **Escalabilidade**: Paginação quando necessário\n✅ **Padrão Spring**: Usa `Page<T>` nativo sem reinventar a roda\n✅ **Performance otimizada**: Abordagem pragmática baseada no volume de dados\n✅ **Fácil migração**: Simples trocar de endpoint quando crescer'","timestamp":1759463296382},{"id":"28fh.tsx","source":"Chat Edit: 'guia de paginação nova:\n# 📄 Documentação da API - Vendas\n\n## Endpoints de Vendas\n\n### 1. GET `/vendas` - Lista Simples\n\n**Descrição:** Retorna todas as vendas em uma lista simples. Ideal para poucos dados e desenvolvimento inicial.\n\n**Resposta:**\n```json\n[\n  {\n    \"id\": 1,\n    \"dataVenda\": \"2025-10-02\",\n    \"quantidade\": 2,\n    \"valorUnitario\": 25.50,\n    \"valorTotalVenda\": 51.00,\n    \"produto\": {\n      \"id\": \"1001\",\n      \"nome\": \"Produto Exemplo\",\n      \"valorUnitario\": 25.50\n    },\n    \"cliente\": {\n      \"id\": \"2001\",\n      \"nome\": \"João Silva\"\n    }\n  }\n]\n```\n\n### 2. GET `/vendas/paginado` - Com Paginação\n\n**Descrição:** Endpoint com paginação usando Spring Data. Use quando houver muitos dados (>100 registros).\n\n**Parâmetros de Query:**\n- `page` (opcional): Número da página (começa em 0) - padrão: 0\n- `size` (opcional): Tamanho da página - padrão: 20\n- `sortBy` (opcional): Campo para ordenação - padrão: id\n- `sortDir` (opcional): Direção da ordenação (asc/desc) - padrão: asc\n\n**Campos disponíveis para ordenação:**\n- `id` - ID da venda\n- `dataVenda` - Data da venda\n- `quantidade` - Quantidade vendida\n- `valorUnitario` - Valor unitário\n- `valorTotalVenda` - Valor total da venda\n\n**Exemplos de Uso:**\n```\nGET /vendas/paginado                                    # Primeira página, 20 itens, ordenado por ID\nGET /vendas/paginado?page=1&size=10                     # Segunda página, 10 itens\nGET /vendas/paginado?sortBy=id&sortDir=desc             # Ordenado por ID decrescente\nGET /vendas/paginado?sortBy=dataVenda&sortDir=asc       # Ordenado por data crescente\nGET /vendas/paginado?sortBy=valorTotalVenda&sortDir=desc # Ordenado por valor decrescente\nGET /vendas/paginado?page=0&size=5&sortBy=dataVenda     # Personalizado completo\n```\n\n**Resposta (Spring Page):**\n```json\n{\n  \"content\": [\n    {\n      \"id\": 1,\n      \"dataVenda\": \"2025-10-02\",\n      \"quantidade\": 2,\n      \"valorUnitario\": 25.50,\n      \"valorTotalVenda\": 51.00,\n      \"produto\": {\n        \"id\": \"1001\",\n        \"nome\": \"Produto Exemplo\",\n        \"valorUnitario\": 25.50\n      },\n      \"cliente\": {\n        \"id\": \"2001\",\n        \"nome\": \"João Silva\"\n      }\n    }\n  ],\n  \"pageable\": {\n    \"pageNumber\": 0,\n    \"pageSize\": 20,\n    \"sort\": {\n      \"sorted\": true,\n      \"empty\": false\n    }\n  },\n  \"totalElements\": 100,\n  \"totalPages\": 5,\n  \"last\": false,\n  \"first\": true,\n  \"numberOfElements\": 20\n}\n```\n\n### 3. POST `/vendas` - Processar Vendas em Lote\n\n**Descrição:** Processa dados vindos do frontend (arquivo .dat parseado).\n\n**Body:** Array de objetos `ItemRequestBody`\n\n**Resposta:** Objeto `VendaResponse` com estatísticas do processamento.\n\n## 📋 Exemplos Práticos\n\n### Frontend JavaScript\n\n**Lista Simples (recomendado para início):**\n```javascript\n// Buscar todas as vendas\nconst response = await fetch('/vendas');\nconst vendas = await response.json();\n\nconsole.log(`Total de vendas: ${vendas.length}`);\nvendas.forEach(venda => {\n    console.log(`Venda ${venda.id}: R$ ${venda.valorTotalVenda}`);\n});\n```\n\n**Com Paginação (quando necessário):**\n```javascript\n// Buscar primeira página\nconst response = await fetch('/vendas/paginado?page=0&size=10');\nconst data = await response.json();\n\nconsole.log(`Página ${data.number + 1} de ${data.totalPages}`);\nconsole.log(`Total de vendas: ${data.totalElements}`);\n\n// Buscar próxima página se existir\nif (!data.last) {\n    const nextPage = await fetch(`/vendas/paginado?page=${data.number + 1}&size=10`);\n}\n```\n\n### CURL\n\n```bash\n# Lista simples (para desenvolvimento)\ncurl \"http://localhost:8080/vendas\"\n\n# Com paginação (para produção com muitos dados)\ncurl \"http://localhost:8080/vendas/paginado?page=0&size=5\"\ncurl \"http://localhost:8080/vendas/paginado?sort=valorTotalVenda,desc\"\n```\n\n## 🎯 Quando Usar Cada Endpoint\n\n### GET `/vendas` (Lista Simples)\n✅ **Use quando:**\n- Poucos dados (< 100 registros)\n- Desenvolvimento/testes\n- Frontend precisa de todos os dados\n- Simplicidade é prioridade\n\n### GET `/vendas/paginado` (Com Paginação)\n✅ **Use quando:**\n- Muitos dados (> 100 registros)\n- Performance é crítica\n- Frontend tem navegação por páginas\n- Produção com grandes volumes\n\n## 🚀 Vantagens da Implementação\n\n✅ **Simplicidade primeiro**: Lista simples para começar\n✅ **Escalabilidade**: Paginação quando necessário\n✅ **Padrão Spring**: Usa `Page<T>` nativo sem reinventar a roda\n✅ **Performance otimizada**: Abordagem pragmática baseada no volume de dados\n✅ **Fácil migração**: Simples trocar de endpoint quando crescer'","timestamp":1759463348546},{"id":"WlKa.tsx","timestamp":1759463384194},{"id":"ETWN.tsx","source":"Chat Edit: 'tente de novo com o gui'","timestamp":1759463421450},{"id":"AZlC.tsx","source":"Chat Edit: 'tente de novo com o gui'","timestamp":1759463445203},{"id":"6krI.tsx","source":"Chat Edit: 'tente de novo com o gui'","timestamp":1759463465919},{"id":"HgdB.tsx","source":"Chat Edit: 'seguinte, não quero disparar uma renderiazação que mostre o skeleton quando eu por pra ordenar'","timestamp":1759463735736},{"id":"Pxr1.tsx","source":"Chat Edit: 'seguinte, não quero disparar uma renderiazação que mostre o skeleton quando eu por pra ordenar'","timestamp":1759463764642},{"id":"kkKc.tsx","source":"Chat Edit: 'ok, agora ajuste a pesquisa:\n### 3. GET `/vendas/buscar` - Pesquisa Unificada\n\n**Descrição:** Busca vendas por nome de cliente OU nome de produto em uma única consulta.\n\n**Parâmetros de Query:**\n- `query` (obrigatório): Termo de busca que será procurado nos nomes de clientes e produtos\n\n**Exemplos de Uso:**\n```\nGET /vendas/buscar?query=João           # Busca por clientes com \"João\" no nome\nGET /vendas/buscar?query=Notebook       # Busca por produtos com \"Notebook\" no nome  \nGET /vendas/buscar?query=Silva          # Busca tanto clientes quanto produtos com \"Silva\"\n```\n\n**Resposta:** Array de vendas que correspondem à busca\n```json\n[\n  {\n    \"id\": 1,\n    \"dataVenda\": \"2025-10-02\",\n    \"quantidade\": 2,\n    \"valorUnitario\": 25.50,\n    \"valorTotalVenda\": 51.00,\n    \"produto\": {\n      \"id\": \"1001\",\n      \"nome\": \"Notebook Dell\",\n      \"valorUnitario\": 25.50\n    },\n    \"cliente\": {\n      \"id\": \"2001\",\n      \"nome\": \"João Silva\"\n    }\n  }\n]\n```\n'","timestamp":1759464170645},{"id":"zZSM.tsx","source":"Chat Edit: 'ok, agora ajuste a pesquisa:\n### 3. GET `/vendas/buscar` - Pesquisa Unificada\n\n**Descrição:** Busca vendas por nome de cliente OU nome de produto em uma única consulta.\n\n**Parâmetros de Query:**\n- `query` (obrigatório): Termo de busca que será procurado nos nomes de clientes e produtos\n\n**Exemplos de Uso:**\n```\nGET /vendas/buscar?query=João           # Busca por clientes com \"João\" no nome\nGET /vendas/buscar?query=Notebook       # Busca por produtos com \"Notebook\" no nome  \nGET /vendas/buscar?query=Silva          # Busca tanto clientes quanto produtos com \"Silva\"\n```\n\n**Resposta:** Array de vendas que correspondem à busca\n```json\n[\n  {\n    \"id\": 1,\n    \"dataVenda\": \"2025-10-02\",\n    \"quantidade\": 2,\n    \"valorUnitario\": 25.50,\n    \"valorTotalVenda\": 51.00,\n    \"produto\": {\n      \"id\": \"1001\",\n      \"nome\": \"Notebook Dell\",\n      \"valorUnitario\": 25.50\n    },\n    \"cliente\": {\n      \"id\": \"2001\",\n      \"nome\": \"João Silva\"\n    }\n  }\n]\n```\n'","timestamp":1759464208903},{"id":"pzt3.tsx","source":"Chat Edit: 'ok, agora ajuste a pesquisa:\n### 3. GET `/vendas/buscar` - Pesquisa Unificada\n\n**Descrição:** Busca vendas por nome de cliente OU nome de produto em uma única consulta.\n\n**Parâmetros de Query:**\n- `query` (obrigatório): Termo de busca que será procurado nos nomes de clientes e produtos\n\n**Exemplos de Uso:**\n```\nGET /vendas/buscar?query=João           # Busca por clientes com \"João\" no nome\nGET /vendas/buscar?query=Notebook       # Busca por produtos com \"Notebook\" no nome  \nGET /vendas/buscar?query=Silva          # Busca tanto clientes quanto produtos com \"Silva\"\n```\n\n**Resposta:** Array de vendas que correspondem à busca\n```json\n[\n  {\n    \"id\": 1,\n    \"dataVenda\": \"2025-10-02\",\n    \"quantidade\": 2,\n    \"valorUnitario\": 25.50,\n    \"valorTotalVenda\": 51.00,\n    \"produto\": {\n      \"id\": \"1001\",\n      \"nome\": \"Notebook Dell\",\n      \"valorUnitario\": 25.50\n    },\n    \"cliente\": {\n      \"id\": \"2001\",\n      \"nome\": \"João Silva\"\n    }\n  }\n]\n```\n'","timestamp":1759464221964},{"id":"L5PW.tsx","source":"Chat Edit: 'ok, agora ajuste a pesquisa:\n### 3. GET `/vendas/buscar` - Pesquisa Unificada\n\n**Descrição:** Busca vendas por nome de cliente OU nome de produto em uma única consulta.\n\n**Parâmetros de Query:**\n- `query` (obrigatório): Termo de busca que será procurado nos nomes de clientes e produtos\n\n**Exemplos de Uso:**\n```\nGET /vendas/buscar?query=João           # Busca por clientes com \"João\" no nome\nGET /vendas/buscar?query=Notebook       # Busca por produtos com \"Notebook\" no nome  \nGET /vendas/buscar?query=Silva          # Busca tanto clientes quanto produtos com \"Silva\"\n```\n\n**Resposta:** Array de vendas que correspondem à busca\n```json\n[\n  {\n    \"id\": 1,\n    \"dataVenda\": \"2025-10-02\",\n    \"quantidade\": 2,\n    \"valorUnitario\": 25.50,\n    \"valorTotalVenda\": 51.00,\n    \"produto\": {\n      \"id\": \"1001\",\n      \"nome\": \"Notebook Dell\",\n      \"valorUnitario\": 25.50\n    },\n    \"cliente\": {\n      \"id\": \"2001\",\n      \"nome\": \"João Silva\"\n    }\n  }\n]\n```\n'","timestamp":1759464249934},{"id":"rYbT.tsx","source":"Chat Edit: 'ok, agora ajuste a pesquisa:\n### 3. GET `/vendas/buscar` - Pesquisa Unificada\n\n**Descrição:** Busca vendas por nome de cliente OU nome de produto em uma única consulta.\n\n**Parâmetros de Query:**\n- `query` (obrigatório): Termo de busca que será procurado nos nomes de clientes e produtos\n\n**Exemplos de Uso:**\n```\nGET /vendas/buscar?query=João           # Busca por clientes com \"João\" no nome\nGET /vendas/buscar?query=Notebook       # Busca por produtos com \"Notebook\" no nome  \nGET /vendas/buscar?query=Silva          # Busca tanto clientes quanto produtos com \"Silva\"\n```\n\n**Resposta:** Array de vendas que correspondem à busca\n```json\n[\n  {\n    \"id\": 1,\n    \"dataVenda\": \"2025-10-02\",\n    \"quantidade\": 2,\n    \"valorUnitario\": 25.50,\n    \"valorTotalVenda\": 51.00,\n    \"produto\": {\n      \"id\": \"1001\",\n      \"nome\": \"Notebook Dell\",\n      \"valorUnitario\": 25.50\n    },\n    \"cliente\": {\n      \"id\": \"2001\",\n      \"nome\": \"João Silva\"\n    }\n  }\n]\n```\n'","timestamp":1759464261990},{"id":"yyx8.tsx","source":"Chat Edit: 'sinto que nome de cliente e de produto não estão sendo ordenados'","timestamp":1759464436152},{"id":"C0gF.tsx","source":"Chat Edit: 'sinto que nome de cliente e de produto não estão sendo ordenados'","timestamp":1759464457007},{"id":"UD76.tsx","source":"Chat Edit: 'sinto que nome de cliente e de produto não estão sendo ordenados'","timestamp":1759464469997},{"id":"lSro.tsx","timestamp":1759464498442},{"id":"sbpI.tsx","timestamp":1759464514288},{"id":"nplm.tsx","timestamp":1759464531437},{"id":"AHlt.tsx","timestamp":1759464557773},{"id":"PwnN.tsx","timestamp":1759464568591},{"id":"oJ2l.tsx","timestamp":1759464607080},{"id":"GVNg.tsx","source":"Chat Edit: 'pq tem um emoji?'","timestamp":1759464684889},{"id":"gSgK.tsx","source":"Chat Edit: 'a pesquisa não deve travar a escrita'","timestamp":1759464756371},{"id":"SaWw.tsx","source":"Chat Edit: 'a pesquisa não deve travar a escrita'","timestamp":1759464777149},{"id":"GY28.tsx","source":"Chat Edit: 'a pesquisa não deve travar a escrita'","timestamp":1759464787670},{"id":"LUgP.tsx","source":"Chat Edit: 'a pesquisa não deve travar a escrita'","timestamp":1759464815836},{"id":"VAJm.tsx","source":"Chat Edit: 'a pesquisa não deve travar a escrita'","timestamp":1759464828786},{"id":"kmAU.tsx","timestamp":1759464881792},{"id":"xn2q.tsx","timestamp":1759464893751},{"id":"BHNW.tsx","timestamp":1759464924970},{"id":"Okrw.tsx","timestamp":1759464987769},{"id":"cw3w.tsx","source":"Chat Edit: 'Agora eu quero animar, inclsuive pop ups de respostas com gsap e o shadcn, os componentes que já existrirem, anime os modais, aparição dos items da lista etc'","timestamp":1759465338281},{"id":"u0Mj.tsx","source":"Chat Edit: 'Agora eu quero animar, inclsuive pop ups de respostas com gsap e o shadcn, os componentes que já existrirem, anime os modais, aparição dos items da lista etc'","timestamp":1759465362971},{"id":"Y36C.tsx","source":"Chat Edit: 'Agora eu quero animar, inclsuive pop ups de respostas com gsap e o shadcn, os componentes que já existrirem, anime os modais, aparição dos items da lista etc'","timestamp":1759465384231},{"id":"5cRi.tsx","source":"Chat Edit: 'tem coisas faltando'","timestamp":1759465798850},{"id":"ua1d.tsx","source":"Chat Edit: 'tem coisas faltando'","timestamp":1759465831323},{"id":"KsIh.tsx","source":"Chat Edit: 'a tabela não está sendo exibida'","timestamp":1759466107024},{"id":"emUF.tsx","timestamp":1759466189904},{"id":"Dn9Q.tsx","timestamp":1759466229288},{"id":"AEcK.tsx","timestamp":1759501413294},{"id":"nXGn.tsx","source":"Chat Edit: 'resolva os problemas do npm run build'","timestamp":1759502862899},{"id":"o1ee.tsx","source":"Chat Edit: '@agent Continue: \"Continue to iterate?\"'","timestamp":1759503165835},{"id":"BoDO.tsx","source":"Chat Edit: '@agent Continue: \"Continue to iterate?\"'","timestamp":1759503194040},{"id":"o3dm.tsx","source":"Chat Edit: '@agent Continue: \"Continue to iterate?\"'","timestamp":1759503207295},{"id":"gKBJ.tsx","source":"Chat Edit: '@agent Continue: \"Continue to iterate?\"'","timestamp":1759503253938},{"id":"68xG.tsx","source":"Chat Edit: 'agora o esquisar não tá batendo no back'","timestamp":1759505498584},{"id":"QYNF.tsx","source":"Chat Edit: 'na pesquisa eu to recebendo:\n2025-10-03T13:03:04.812-03:00  WARN 125973 --- [demo] [nio-8080-exec-7] .w.s.m.s.DefaultHandlerExceptionResolver : Resolved [org.springframework.web.bind.MissingServletRequestParameterException: Required request parameter 'query' for method parameter type String is not present]'","timestamp":1759507428095},{"id":"FnBx.tsx","source":"Chat Edit: 'os componentes da paginição no celular estão saindo da tela, ajuste a responsividade/posição dos items '","timestamp":1759513671762}]}