{"version":1,"resource":"file:///home/monteiro/codes/varejo_rapido/src/app/api/vendas/route.ts","entries":[{"id":"NsRw.ts","source":"Chat Edit: 'already have all components'","timestamp":1759416791745},{"id":"i3uA.ts","source":"Chat Edit: 'remova os mocks e conecte com a api, as vendas vem em GET /vendas na porta 8080. a parte que exibe os dados do .dat quero que apareçam antes de confimar o envio igual o componente que colcoa o .dat, quero que seja um modal pra scrolar internamente mostrando os dados e ai confirmar e atualizar a tabela'","timestamp":1759453432286},{"id":"mZbE.ts","source":"Chat Edit: 'eu vendo isso:\nResumo de Vendas Diárias\nErro ao carregar dados\nErro ao carregar dados de vendas'","timestamp":1759458522945},{"id":"2gOc.ts","source":"Chat Edit: 'eu vendo isso:\nResumo de Vendas Diárias\nErro ao carregar dados\nErro ao carregar dados de vendas'","timestamp":1759458561583},{"id":"vQkI.ts","source":"Chat Edit: 'eu vendo isso:\nResumo de Vendas Diárias\nErro ao carregar dados\nErro ao carregar dados de vendas'","timestamp":1759458609136},{"id":"cDpa.ts","timestamp":1759458663504},{"id":"GYFU.ts","source":"Chat Edit: 'antes edite o route.ts aqui'","timestamp":1759458721213},{"id":"g9Rh.ts","source":"Chat Edit: 'Agora adicione paginação seguindo esse guia:\n# 📄 Documentação da API - Paginação\n\n## Endpoints de Vendas com Paginação\n\n### 1. GET `/vendas` - Paginação Padrão (Spring Page)\n\n**Parâmetros de Query:**\n- `page` (opcional): Número da página (começa em 0) - padrão: 0\n- `size` (opcional): Tamanho da página - padrão: 20\n- `sort` (opcional): Campo e direção da ordenação - padrão: dataVenda\n\n**Exemplos de Uso:**\n```\nGET /vendas                           # Primeira página, 20 itens, ordenado por dataVenda\nGET /vendas?page=0&size=10           # Primeira página, 10 itens\nGET /vendas?page=1&size=10           # Segunda página, 10 itens\nGET /vendas?sort=id,desc             # Ordenado por ID decrescente\nGET /vendas?sort=valorTotalVenda,asc # Ordenado por valor crescente\n```\n\n**Resposta (Spring Page):**\n```json\n{\n  \"content\": [\n    {\n      \"id\": 1,\n      \"dataVenda\": \"2025-10-02\",\n      \"quantidade\": 2,\n      \"valorUnitario\": 25.50,\n      \"valorTotalVenda\": 51.00,\n      \"produto\": {\n        \"id\": \"1001\",\n        \"nome\": \"Produto Exemplo\",\n        \"valorUnitario\": 25.50\n      },\n      \"cliente\": {\n        \"id\": \"2001\",\n        \"nome\": \"João Silva\"\n      }\n    }\n  ],\n  \"pageable\": {\n    \"pageNumber\": 0,\n    \"pageSize\": 20,\n    \"sort\": {\n      \"sorted\": true,\n      \"empty\": false\n    }\n  },\n  \"totalElements\": 100,\n  \"totalPages\": 5,\n  \"last\": false,\n  \"first\": true,\n  \"numberOfElements\": 20\n}\n```\n\n### 2. GET `/vendas/paginado` - Resposta Customizada\n\n**Parâmetros de Query:** (mesmos do endpoint anterior)\n\n**Resposta Simplificada:**\n```json\n{\n  \"content\": [...], // Array com as vendas\n  \"currentPage\": 0,\n  \"totalPages\": 5,\n  \"totalElements\": 100,\n  \"size\": 20,\n  \"first\": true,\n  \"last\": false,\n  \"hasNext\": true,\n  \"hasPrevious\": false\n}\n```\n\n## 📋 Exemplos Práticos\n\n### Frontend JavaScript\n```javascript\n// Buscar primeira página\nconst response = await fetch('/vendas?page=0&size=10');\nconst data = await response.json();\n\nconsole.log(`Página ${data.number + 1} de ${data.totalPages}`);\nconsole.log(`Total de vendas: ${data.totalElements}`);\n\n// Buscar próxima página se existir\nif (!data.last) {\n    const nextPage = await fetch(`/vendas?page=${data.number + 1}&size=10`);\n}\n```\n\n### CURL\n```bash\n# Primeira página\ncurl \"http://localhost:8080/vendas?page=0&size=5\"\n\n# Segunda página ordenada por valor\ncurl \"http://localhost:8080/vendas?page=1&size=5&sort=valorTotalVenda,desc\"\n\n# Resposta customizada\ncurl \"http://localhost:8080/vendas/paginado?page=0&size=10\"\n```\n\n## 🎯 Vantagens da Implementação\n\n✅ **Duas opções de resposta**: Spring Page completa ou customizada simplificada\n✅ **Ordenação flexível**: Por qualquer campo da entidade\n✅ **Performance**: Evita carregar milhares de registros de uma vez\n✅ **Padrão REST**: Segue convenções do Spring Data\n✅ **Configurável**: Tamanho de página e ordenação personalizáveis'","timestamp":1759460212384},{"id":"2bF0.ts","source":"Chat Edit: '@agent Continue: \"Continue to iterate?\"'","timestamp":1759460417105},{"id":"0T2p.ts","source":"Chat Edit: 'era pra a cada página ele  requisitar da api? tipo o guia tá aqui:\n# 📄 Documentação da API - Paginação\n\n## Endpoints de Vendas com Paginação\n\n### 1. GET `/vendas` - Paginação Padrão (Spring Page)\n\n**Parâmetros de Query:**\n- `page` (opcional): Número da página (começa em 0) - padrão: 0\n- `size` (opcional): Tamanho da página - padrão: 20\n- `sort` (opcional): Campo e direção da ordenação - padrão: dataVenda\n\n**Exemplos de Uso:**\n```\nGET /vendas                           # Primeira página, 20 itens, ordenado por dataVenda\nGET /vendas?page=0&size=10           # Primeira página, 10 itens\nGET /vendas?page=1&size=10           # Segunda página, 10 itens\nGET /vendas?sort=id,desc             # Ordenado por ID decrescente\nGET /vendas?sort=valorTotalVenda,asc # Ordenado por valor crescente\n```\n\n**Resposta (Spring Page):**\n```json\n{\n  \"content\": [\n    {\n      \"id\": 1,\n      \"dataVenda\": \"2025-10-02\",\n      \"quantidade\": 2,\n      \"valorUnitario\": 25.50,\n      \"valorTotalVenda\": 51.00,\n      \"produto\": {\n        \"id\": \"1001\",\n        \"nome\": \"Produto Exemplo\",\n        \"valorUnitario\": 25.50\n      },\n      \"cliente\": {\n        \"id\": \"2001\",\n        \"nome\": \"João Silva\"\n      }\n    }\n  ],\n  \"pageable\": {\n    \"pageNumber\": 0,\n    \"pageSize\": 20,\n    \"sort\": {\n      \"sorted\": true,\n      \"empty\": false\n    }\n  },\n  \"totalElements\": 100,\n  \"totalPages\": 5,\n  \"last\": false,\n  \"first\": true,\n  \"numberOfElements\": 20\n}\n```\n\n### 2. GET `/vendas/paginado` - Resposta Customizada\n\n**Parâmetros de Query:** (mesmos do endpoint anterior)\n\n**Resposta Simplificada:**\n```json\n{\n  \"content\": [...], // Array com as vendas\n  \"currentPage\": 0,\n  \"totalPages\": 5,\n  \"totalElements\": 100,\n  \"size\": 20,\n  \"first\": true,\n  \"last\": false,\n  \"hasNext\": true,\n  \"hasPrevious\": false\n}\n```\n\n## 📋 Exemplos Práticos\n\n### Frontend JavaScript\n```javascript\n// Buscar primeira página\nconst response = await fetch('/vendas?page=0&size=10');\nconst data = await response.json();\n\nconsole.log(`Página ${data.number + 1} de ${data.totalPages}`);\nconsole.log(`Total de vendas: ${data.totalElements}`);\n\n// Buscar próxima página se existir\nif (!data.last) {\n    const nextPage = await fetch(`/vendas?page=${data.number + 1}&size=10`);\n}\n```\n\n### CURL\n```bash\n# Primeira página\ncurl \"http://localhost:8080/vendas?page=0&size=5\"\n\n# Segunda página ordenada por valor\ncurl \"http://localhost:8080/vendas?page=1&size=5&sort=valorTotalVenda,desc\"\n\n# Resposta customizada\ncurl \"http://localhost:8080/vendas/paginado?page=0&size=10\"\n```\n\n## 🎯 Vantagens da Implementação\n\n✅ **Duas opções de resposta**: Spring Page completa ou customizada simplificada\n✅ **Ordenação flexível**: Por qualquer campo da entidade\n✅ **Performance**: Evita carregar milhares de registros de uma vez\n✅ **Padrão REST**: Segue convenções do Spring Data\n✅ **Configurável**: Tamanho de página e ordenação personalizáveis'","timestamp":1759461932514},{"id":"0epi.ts","source":"Chat Edit: 'agora preciso que você cria uma URL no .env para conectar à api e substitua em todos os lugares que tiver a url da api'","timestamp":1759504405715},{"id":"4x3p.ts","source":"Chat Edit: 'agora preciso que você cria uma URL no .env para conectar à api e substitua em todos os lugares que tiver a url da api'","timestamp":1759504424653},{"id":"LiWi.ts","source":"Chat Edit: 'agora preciso que você cria uma URL no .env para conectar à api e substitua em todos os lugares que tiver a url da api'","timestamp":1759505298635},{"id":"6gy8.ts","source":"Chat Edit: 'não tá batendo o post na api'","timestamp":1759508171429}]}